%YAML 1.1
%TAG !u! tag:unity3d.com,2011:
--- !u!74 &7400000
AnimationClip:
  m_ObjectHideFlags: 0
  m_PrefabParentObject: {fileID: 0}
  m_PrefabInternal: {fileID: 0}
  m_Name: ElisabethIdle
  serializedVersion: 6
  m_Legacy: 0
  m_Compressed: 0
  m_UseHighQualityCurve: 1
  m_RotationCurves: []
  m_CompressedRotationCurves: []
  m_PositionCurves: []
  m_ScaleCurves: []
  m_FloatCurves: []
  m_PPtrCurves:
  - curve:
    - time: 0
      value: {fileID: 21300000, guid: 1e884166b8fc09f44ae7abceca7055ff, type: 3}
    - time: .0833333358
      value: {fileID: 21300000, guid: 4ea155fc039720945acecb9f787f2bbe, type: 3}
    - time: .166666672
      value: {fileID: 21300000, guid: 24cda5bd8c14ebc439cdd50bd333d3a6, type: 3}
    - time: .25
      value: {fileID: 21300000, guid: 28e7e82f5de526d4dad08e6311b06684, type: 3}
    - time: .333333343
      value: {fileID: 21300000, guid: 66185ead29a63cf438e7f4bf6dd84556, type: 3}
    - time: .416666657
      value: {fileID: 21300000, guid: c976cb804836b5a43b25a851232d08b7, type: 3}
    - time: .5
      value: {fileID: 21300000, guid: 1d3a415c090020040a65abe6eb4ee4f1, type: 3}
    - time: .583333313
      value: {fileID: 21300000, guid: 7aaecb1e844fbce45b54e921f1c19852, type: 3}
    - time: .666666687
      value: {fileID: 21300000, guid: 7aaecb1e844fbce45b54e921f1c19852, type: 3}
    attribute: m_Sprite
    path: 
    classID: 212
    script: {fileID: 0}
  m_SampleRate: 12
  m_WrapMode: 0
  m_Bounds:
    m_Center: {x: 0, y: 0, z: 0}
    m_Extent: {x: 0, y: 0, z: 0}
  m_ClipBindingConstant:
    genericBindings:
    - path: 0
      attribute: 0
      script: {fileID: 0}
      classID: 212
      customType: 23
      isPPtrCurve: 1
    pptrCurveMapping:
    - {fileID: 21300000, guid: 1e884166b8fc09f44ae7abceca7055ff, type: 3}
    - {fileID: 21300000, guid: 4ea155fc039720945acecb9f787f2bbe, type: 3}
    - {fileID: 21300000, guid: 24cda5bd8c14ebc439cdd50bd333d3a6, type: 3}
    - {fileID: 21300000, guid: 28e7e82f5de526d4dad08e6311b06684, type: 3}
    - {fileID: 21300000, guid: 66185ead29a63cf438e7f4bf6dd84556, type: 3}
    - {fileID: 21300000, guid: c976cb804836b5a43b25a851232d08b7, type: 3}
    - {fileID: 21300000, guid: 1d3a415c090020040a65abe6eb4ee4f1, type: 3}
    - {fileID: 21300000, guid: 7aaecb1e844fbce45b54e921f1c19852, type: 3}
    - {fileID: 21300000, guid: 7aaecb1e844fbce45b54e921f1c19852, type: 3}
  m_AnimationClipSettings:
    serializedVersion: 2
    m_StartTime: 0
    m_StopTime: .75
    m_OrientationOffsetY: 0
    m_Level: 0
    m_CycleOffset: 0
    m_LoopTime: 1
    m_LoopBlend: 0
    m_LoopBlendOrientation: 0
    m_LoopBlendPositionY: 0
    m_LoopBlendPositionXZ: 0
    m_KeepOriginalOrientation: 0
    m_KeepOriginalPositionY: 1
    m_KeepOriginalPositionXZ: 0
    m_HeightFromFeet: 0
    m_Mirror: 0
  m_EditorCurves: []
  m_EulerEditorCurves: []
  m_HasGenericRootTransform: 0
  m_HasMotionFloatCurves: 0
  m_GenerateMotionCurves: 0
  m_Events: []
