%YAML 1.1
%TAG !u! tag:unity3d.com,2011:
--- !u!1 &179440
GameObject:
  m_ObjectHideFlags: 0
  m_PrefabParentObject: {fileID: 0}
  m_PrefabInternal: {fileID: 100100000}
  serializedVersion: 4
  m_Component:
  - 4: {fileID: 447284}
  - 114: {fileID: 11454514}
  m_Layer: 0
  m_Name: Depression Manager
  m_TagString: Untagged
  m_Icon: {fileID: 0}
  m_NavMeshLayer: 0
  m_StaticEditorFlags: 0
  m_IsActive: 1
--- !u!4 &447284
Transform:
  m_ObjectHideFlags: 1
  m_PrefabParentObject: {fileID: 0}
  m_PrefabInternal: {fileID: 100100000}
  m_GameObject: {fileID: 179440}
  m_LocalRotation: {x: 0, y: 0, z: 0, w: 1}
  m_LocalPosition: {x: 0, y: 0, z: 0}
  m_LocalScale: {x: 1, y: 1, z: 1}
  m_Children: []
  m_Father: {fileID: 0}
  m_RootOrder: 0
--- !u!114 &11454514
MonoBehaviour:
  m_ObjectHideFlags: 1
  m_PrefabParentObject: {fileID: 0}
  m_PrefabInternal: {fileID: 100100000}
  m_GameObject: {fileID: 179440}
  m_Enabled: 1
  m_EditorHideFlags: 0
  m_Script: {fileID: 11500000, guid: ad626b7c65fb489409601ebe4158d7ba, type: 3}
  m_Name: 
  m_EditorClassIdentifier: 
  elisabethPrefab: {fileID: 146936, guid: 05ad54077752df643b11efee73b3be99, type: 2}
  beamPrefab: {fileID: 110790, guid: 5d6f8002a76c4a64aa58db1402c0ec63, type: 2}
  bombPrefab: {fileID: 149198, guid: 65ede318a43aefd4c9d077cfc5ac2daf, type: 2}
  minePrefab: {fileID: 148956, guid: b30d715d8a4c7274dbb2fa6105ee0d00, type: 2}
  depressionElisabeth: {fileID: 0}
  phase: 0
  timer: 0
  phaseAmount: 0
--- !u!1001 &100100000
Prefab:
  m_ObjectHideFlags: 1
  serializedVersion: 2
  m_Modification:
    m_TransformParent: {fileID: 0}
    m_Modifications:
    - target: {fileID: 0}
      propertyPath: timer
      value: 0
      objectReference: {fileID: 0}
    m_RemovedComponents: []
  m_ParentPrefab: {fileID: 0}
  m_RootGameObject: {fileID: 179440}
  m_IsPrefabParent: 1
